<?xml version="1.0" encoding="UTF-8" standalone="no"?>
<!DOCTYPE svg PUBLIC "-//W3C//DTD SVG 1.1//EN"
 "http://www.w3.org/Graphics/SVG/1.1/DTD/svg11.dtd">
<!-- Generated by graphviz version 2.43.0 (0)
 -->
<!-- Title: test Pages: 1 -->
<svg width="1337pt" height="289pt"
 viewBox="0.00 0.00 1337.00 289.00" xmlns="http://www.w3.org/2000/svg" xmlns:xlink="http://www.w3.org/1999/xlink">
<g id="graph0" class="graph" transform="scale(1 1) rotate(0) translate(4 285)">
<title>test</title>
<polygon fill="white" stroke="transparent" points="-4,4 -4,-285 1333,-285 1333,4 -4,4"/>
<!-- ParticlesFactoryInterface -->
<g id="node1" class="node">
<title>ParticlesFactoryInterface</title>
<polygon fill="none" stroke="black" points="53,-121.5 53,-159.5 343,-159.5 343,-121.5 53,-121.5"/>
<text text-anchor="middle" x="198" y="-147.5" font-family="Helvetica,sans-Serif" font-size="10.00">ParticlesFactoryInterface</text>
<polyline fill="none" stroke="black" points="53,-140.5 343,-140.5 "/>
<text text-anchor="start" x="61" y="-128.5" font-family="Helvetica,sans-Serif" font-size="10.00"># std::unique_ptr&lt;SystemEvolution&gt; system_evolution</text>
</g>
<!-- MaterialPointsFactory -->
<g id="node3" class="node">
<title>MaterialPointsFactory</title>
<polygon fill="none" stroke="black" points="0,-0.5 0,-36.5 122,-36.5 122,-0.5 0,-0.5"/>
<text text-anchor="middle" x="61" y="-16" font-family="Helvetica,sans-Serif" font-size="10.00">MaterialPointsFactory</text>
</g>
<!-- ParticlesFactoryInterface&#45;&gt;MaterialPointsFactory -->
<g id="edge2" class="edge">
<title>ParticlesFactoryInterface&#45;&gt;MaterialPointsFactory</title>
<path fill="none" stroke="midnightblue" d="M169.37,-114.42C142.78,-91.14 103.91,-57.09 80.67,-36.73"/>
<polygon fill="none" stroke="midnightblue" points="167.36,-117.32 177.19,-121.27 171.98,-112.05 167.36,-117.32"/>
</g>
<!-- PingPongBallFactory -->
<g id="node4" class="node">
<title>PingPongBallFactory</title>
<polygon fill="none" stroke="black" points="140,-0.5 140,-36.5 256,-36.5 256,-0.5 140,-0.5"/>
<text text-anchor="middle" x="198" y="-16" font-family="Helvetica,sans-Serif" font-size="10.00">PingPongBallFactory</text>
</g>
<!-- ParticlesFactoryInterface&#45;&gt;PingPongBallFactory -->
<g id="edge3" class="edge">
<title>ParticlesFactoryInterface&#45;&gt;PingPongBallFactory</title>
<path fill="none" stroke="midnightblue" d="M198,-111.04C198,-87.94 198,-56.12 198,-36.73"/>
<polygon fill="none" stroke="midnightblue" points="194.5,-111.27 198,-121.27 201.5,-111.27 194.5,-111.27"/>
</g>
<!-- PlanetFactory -->
<g id="node5" class="node">
<title>PlanetFactory</title>
<polygon fill="none" stroke="black" points="274.5,-0.5 274.5,-36.5 357.5,-36.5 357.5,-0.5 274.5,-0.5"/>
<text text-anchor="middle" x="316" y="-16" font-family="Helvetica,sans-Serif" font-size="10.00">PlanetFactory</text>
</g>
<!-- ParticlesFactoryInterface&#45;&gt;PlanetFactory -->
<g id="edge4" class="edge">
<title>ParticlesFactoryInterface&#45;&gt;PlanetFactory</title>
<path fill="none" stroke="midnightblue" d="M222.96,-114.12C245.85,-90.84 279.13,-57 299.06,-36.73"/>
<polygon fill="none" stroke="midnightblue" points="220.44,-111.69 215.92,-121.27 225.43,-116.6 220.44,-111.69"/>
</g>
<!-- std::unique_ptr&lt;SystemEvolution&gt; -->
<g id="node2" class="node">
<title>std::unique_ptr&lt;SystemEvolution&gt;</title>
<polygon fill="none" stroke="black" points="104,-244.5 104,-280.5 292,-280.5 292,-244.5 104,-244.5"/>
<text text-anchor="middle" x="198" y="-260" font-family="Helvetica,sans-Serif" font-size="10.00">std::unique_ptr&lt;SystemEvolution&gt;</text>
</g>
<!-- std::unique_ptr&lt;SystemEvolution&gt;&#45;&gt;ParticlesFactoryInterface -->
<g id="edge1" class="edge">
<title>std::unique_ptr&lt;SystemEvolution&gt;&#45;&gt;ParticlesFactoryInterface</title>
<path fill="none" stroke="midnightblue" stroke-dasharray="5,2" d="M198,-232.07C198,-209.5 198,-179.05 198,-159.84"/>
<polygon fill="none" stroke="midnightblue" points="198,-232.31 202,-238.31 198,-244.31 194,-238.31 198,-232.31"/>
</g>
<!-- SystemEvolution -->
<g id="node6" class="node">
<title>SystemEvolution</title>
<polygon fill="none" stroke="black" points="461,-73.5 461,-207.5 753,-207.5 753,-73.5 461,-73.5"/>
<text text-anchor="middle" x="607" y="-195.5" font-family="Helvetica,sans-Serif" font-size="10.00">SystemEvolution</text>
<polyline fill="none" stroke="black" points="461,-188.5 753,-188.5 "/>
<text text-anchor="start" x="469" y="-176.5" font-family="Helvetica,sans-Serif" font-size="10.00">+ void setNSteps(UInt)</text>
<text text-anchor="start" x="469" y="-165.5" font-family="Helvetica,sans-Serif" font-size="10.00">+ void evolve()</text>
<text text-anchor="start" x="469" y="-154.5" font-family="Helvetica,sans-Serif" font-size="10.00">+ System&amp; getSystem()</text>
<text text-anchor="start" x="469" y="-143.5" font-family="Helvetica,sans-Serif" font-size="10.00">+ void setDumpFreq(UInt)</text>
<text text-anchor="start" x="469" y="-132.5" font-family="Helvetica,sans-Serif" font-size="10.00">+ void addCompute(const std::shared_ptr&lt;Compute&gt;&amp;)</text>
<polyline fill="none" stroke="black" points="461,-125.5 753,-125.5 "/>
<text text-anchor="start" x="469" y="-113.5" font-family="Helvetica,sans-Serif" font-size="10.00"># std::unique_ptr&lt;System&gt; system</text>
<text text-anchor="start" x="469" y="-102.5" font-family="Helvetica,sans-Serif" font-size="10.00"># std::vector&lt;std::shared_ptr&lt;Compute&gt;&gt; computes</text>
<text text-anchor="start" x="469" y="-91.5" font-family="Helvetica,sans-Serif" font-size="10.00"># UInt nsteps</text>
<text text-anchor="start" x="469" y="-80.5" font-family="Helvetica,sans-Serif" font-size="10.00"># UInt freq</text>
</g>
<!-- std::vector&lt;std::shared_ptr&lt;Compute&gt;&gt; -->
<g id="node7" class="node">
<title>std::vector&lt;std::shared_ptr&lt;Compute&gt;&gt;</title>
<polygon fill="none" stroke="black" points="310,-244.5 310,-280.5 528,-280.5 528,-244.5 310,-244.5"/>
<text text-anchor="middle" x="419" y="-260" font-family="Helvetica,sans-Serif" font-size="10.00">std::vector&lt;std::shared_ptr&lt;Compute&gt;&gt;</text>
</g>
<!-- std::vector&lt;std::shared_ptr&lt;Compute&gt;&gt;&#45;&gt;SystemEvolution -->
<g id="edge5" class="edge">
<title>std::vector&lt;std::shared_ptr&lt;Compute&gt;&gt;&#45;&gt;SystemEvolution</title>
<path fill="none" stroke="midnightblue" stroke-dasharray="5,2" d="M456.41,-237.62C470.2,-228.82 486.6,-218.35 503.4,-207.63"/>
<polygon fill="none" stroke="midnightblue" points="456.05,-237.85 453.15,-244.45 445.94,-244.31 448.84,-237.71 456.05,-237.85"/>
</g>
<!-- std::unique_ptr&lt;System&gt; -->
<g id="node8" class="node">
<title>std::unique_ptr&lt;System&gt;</title>
<polygon fill="none" stroke="black" points="546.5,-244.5 546.5,-280.5 689.5,-280.5 689.5,-244.5 546.5,-244.5"/>
<text text-anchor="middle" x="618" y="-260" font-family="Helvetica,sans-Serif" font-size="10.00">std::unique_ptr&lt;System&gt;</text>
</g>
<!-- std::unique_ptr&lt;System&gt;&#45;&gt;SystemEvolution -->
<g id="edge6" class="edge">
<title>std::unique_ptr&lt;System&gt;&#45;&gt;SystemEvolution</title>
<path fill="none" stroke="midnightblue" stroke-dasharray="5,2" d="M615.31,-232.21C614.62,-224.66 613.85,-216.23 613.06,-207.63"/>
<polygon fill="none" stroke="midnightblue" points="615.33,-232.36 619.86,-237.97 616.42,-244.31 611.89,-238.7 615.33,-232.36"/>
</g>
<!-- UInt -->
<g id="node9" class="node">
<title>UInt</title>
<polygon fill="none" stroke="black" points="728,-244.5 728,-280.5 782,-280.5 782,-244.5 728,-244.5"/>
<text text-anchor="middle" x="755" y="-260" font-family="Helvetica,sans-Serif" font-size="10.00">UInt</text>
</g>
<!-- UInt&#45;&gt;SystemEvolution -->
<g id="edge7" class="edge">
<title>UInt&#45;&gt;SystemEvolution</title>
<path fill="none" stroke="midnightblue" stroke-dasharray="5,2" d="M724.25,-236.57C713.67,-227.99 701.26,-217.93 688.56,-207.63"/>
<polygon fill="none" stroke="midnightblue" points="724.47,-236.75 731.65,-237.42 733.8,-244.31 726.62,-243.64 724.47,-236.75"/>
</g>
<!-- System -->
<g id="node10" class="node">
<title>System</title>
<polygon fill="none" stroke="black" points="771.5,-95.5 771.5,-185.5 1058.5,-185.5 1058.5,-95.5 771.5,-95.5"/>
<text text-anchor="middle" x="915" y="-173.5" font-family="Helvetica,sans-Serif" font-size="10.00">System</text>
<polyline fill="none" stroke="black" points="771.5,-166.5 1058.5,-166.5 "/>
<text text-anchor="start" x="779.5" y="-154.5" font-family="Helvetica,sans-Serif" font-size="10.00">+ void removeParticle(UInt)</text>
<text text-anchor="start" x="779.5" y="-143.5" font-family="Helvetica,sans-Serif" font-size="10.00">+ Particle&amp; getParticle(UInt)</text>
<text text-anchor="start" x="779.5" y="-132.5" font-family="Helvetica,sans-Serif" font-size="10.00">+ void addParticle(const std::shared_ptr&lt;Particle&gt;&amp;)</text>
<polyline fill="none" stroke="black" points="771.5,-125.5 1058.5,-125.5 "/>
<text text-anchor="start" x="779.5" y="-113.5" font-family="Helvetica,sans-Serif" font-size="10.00">+ UInt getNbParticles</text>
<text text-anchor="start" x="779.5" y="-102.5" font-family="Helvetica,sans-Serif" font-size="10.00"># std::vector&lt;std::shared_ptr&lt;Particle&gt;&gt; list_particles</text>
</g>
<!-- UInt&#45;&gt;System -->
<g id="edge8" class="edge">
<title>UInt&#45;&gt;System</title>
<path fill="none" stroke="midnightblue" stroke-dasharray="5,2" d="M787.64,-237.02C807.36,-222.23 833.07,-202.95 856.22,-185.58"/>
<polygon fill="none" stroke="midnightblue" points="787.52,-237.11 785.12,-243.91 777.92,-244.31 780.32,-237.51 787.52,-237.11"/>
</g>
<!-- std::vector&lt;std::shared_ptr&lt;Particle&gt;&gt; -->
<g id="node11" class="node">
<title>std::vector&lt;std::shared_ptr&lt;Particle&gt;&gt;</title>
<polygon fill="none" stroke="black" points="810,-244.5 810,-280.5 1020,-280.5 1020,-244.5 810,-244.5"/>
<text text-anchor="middle" x="915" y="-260" font-family="Helvetica,sans-Serif" font-size="10.00">std::vector&lt;std::shared_ptr&lt;Particle&gt;&gt;</text>
</g>
<!-- std::vector&lt;std::shared_ptr&lt;Particle&gt;&gt;&#45;&gt;System -->
<g id="edge9" class="edge">
<title>std::vector&lt;std::shared_ptr&lt;Particle&gt;&gt;&#45;&gt;System</title>
<path fill="none" stroke="midnightblue" stroke-dasharray="5,2" d="M915,-231.98C915,-218.01 915,-201.04 915,-185.58"/>
<polygon fill="none" stroke="midnightblue" points="915,-232.31 919,-238.31 915,-244.31 911,-238.31 915,-232.31"/>
</g>
<!-- Particle -->
<g id="node12" class="node">
<title>Particle</title>
<polygon fill="none" stroke="black" points="1190,-244.5 1190,-280.5 1244,-280.5 1244,-244.5 1190,-244.5"/>
<text text-anchor="middle" x="1217" y="-260" font-family="Helvetica,sans-Serif" font-size="10.00">Particle</text>
</g>
<!-- MaterialPoint -->
<g id="node13" class="node">
<title>MaterialPoint</title>
<polygon fill="none" stroke="black" points="1077,-122.5 1077,-158.5 1159,-158.5 1159,-122.5 1077,-122.5"/>
<text text-anchor="middle" x="1118" y="-138" font-family="Helvetica,sans-Serif" font-size="10.00">MaterialPoint</text>
</g>
<!-- Particle&#45;&gt;MaterialPoint -->
<g id="edge10" class="edge">
<title>Particle&#45;&gt;MaterialPoint</title>
<path fill="none" stroke="midnightblue" d="M1193.31,-236.64C1185.1,-227.77 1175.97,-217.59 1168,-208 1154.43,-191.67 1139.96,-172.16 1130.1,-158.52"/>
<polygon fill="none" stroke="midnightblue" points="1190.84,-239.13 1200.23,-244.05 1195.96,-234.35 1190.84,-239.13"/>
</g>
<!-- PingPongBall -->
<g id="node14" class="node">
<title>PingPongBall</title>
<polygon fill="none" stroke="black" points="1177,-122.5 1177,-158.5 1257,-158.5 1257,-122.5 1177,-122.5"/>
<text text-anchor="middle" x="1217" y="-138" font-family="Helvetica,sans-Serif" font-size="10.00">PingPongBall</text>
</g>
<!-- Particle&#45;&gt;PingPongBall -->
<g id="edge11" class="edge">
<title>Particle&#45;&gt;PingPongBall</title>
<path fill="none" stroke="midnightblue" d="M1217,-234.07C1217,-210.87 1217,-178.34 1217,-158.66"/>
<polygon fill="none" stroke="midnightblue" points="1213.5,-234.31 1217,-244.31 1220.5,-234.31 1213.5,-234.31"/>
</g>
<!-- Planet -->
<g id="node15" class="node">
<title>Planet</title>
<polygon fill="none" stroke="black" points="1275,-122.5 1275,-158.5 1329,-158.5 1329,-122.5 1275,-122.5"/>
<text text-anchor="middle" x="1302" y="-138" font-family="Helvetica,sans-Serif" font-size="10.00">Planet</text>
</g>
<!-- Particle&#45;&gt;Planet -->
<g id="edge12" class="edge">
<title>Particle&#45;&gt;Planet</title>
<path fill="none" stroke="midnightblue" d="M1241.91,-236.86C1250.08,-228.14 1258.88,-218 1266,-208 1277.27,-192.17 1287.54,-172.42 1294.2,-158.57"/>
<polygon fill="none" stroke="midnightblue" points="1239.34,-234.48 1234.95,-244.12 1244.4,-239.32 1239.34,-234.48"/>
</g>
</g>
</svg>
